4, 20, 2
PROPAGATE
ReLU
PROPAGATE
-0.08736266889086829, 0.07010664724740023, 0.014296131727169736, 0.01133092201148977, -0.021972530870570158, -0.5263413667625916, 4.0169899923441133E-5, 0.16688823748773832, -0.29263197011990477, -0.4405437709668339, -0.07829283306931535, 0.07236986876509216, 0.022484982112972323, -0.024395519341910216, -0.09752111269795698, -0.038988396174718117, 0.03964746958964711, -6.438427982041889E-4, 0.014880249590406703, 0.011936622961754767, 0.4277147394952684, 1.4766625391293797, -0.5723230862287968, -0.11752627534856194, -0.741452022363921, -0.11072393065224789, 0.02318154830158637, 0.016933196465859064, -0.00909302460317894, -0.0478668574460713, -0.30445138942182454, -0.025145001085192124, -5.4961422045508084E-5, -0.013590377654628635, -0.1043396872985855, -0.2962215146300454, 0.16540750589640424, -0.030322701099996397, -0.01600581036875493, -0.00707503703117048, -0.05097257239383828, 0.039756999981744194, 0.007540050394277744, -0.0010610072634161534, -0.005119328243707693, 0.08716724717917923, 0.11838332643120933, -0.04199425957239609, -0.010660795300853962, 0.12408973223909696, -0.060075143091822825, 0.019054958962027167, 0.01061471423913697, -0.00729784992330822, -0.029484477693248246, -0.30172351026675676, 0.14156613146022715, 0.07275197018759694, -0.05304818767140504, 0.06075943118392217, -0.0963220036058743, 0.013758872126969399, 0.003830047803022629, -0.005774269419185567, 0.002032952816207966, -0.03174616031543737, 0.2348648681339693, -0.033460619899513315, 0.134792221178583, 0.48699429251992565, 0.19639333663729758, 0.73691338691828, -0.28078172820174074, 0.002584727466378035, -0.33713194625559584, -0.002741848527842308, 0.30442599089141226, -0.044912008465225035, -0.01497766460572208, 0.007802048983121215, -0.32774899666616436, -0.5809702044598477, 0.2159720480326522, -0.26231562003046766, -0.5975857174972763, 0.1316596255323045, 0.43323370554636653, -0.10449268738181357, -0.002908839908398192, 0.1973491876010597, -0.15867185067593942, 0.013689680455226057, -0.006189208147812077, -0.016195474541562938, -0.027615764052957365, -0.035550230213151186, 0.03167214772954743, 0.0012001083642673074, 0.01863767276508513, 0.013116661648422685, -0.0597775112664658, -0.27926251628590326, -0.11444442832333732, -0.006409410767856378, 0.04363191712434205, -0.039582571702061864, -0.16379858002313116, 0.13070661927297617, -0.027249336217239236, 0.0459628738352691, -0.05824399097937261, 0.1460682098361265, 0.021726246808084555, 0.024663480727740376, -0.088426599524174, 0.004738834500540623, -0.6850331557439948, -0.028484207973474528, -0.02968845719117856, 0.017333647523938824, 0.4603179068927205, -0.14586405223425947, -0.10149853782956915, -0.07427753137343408, -0.04478327428555304, -0.6573827284719084, -0.08821801886450843, -0.24419770599277965, -0.26209691831638715, -0.07834735050421908, -0.014818197729738426, -0.07649851107264798, 0.19396517956332965, 0.09127761229036638, -0.03695963587518515, -0.37437472753559403, 0.26526001901120116, -0.005803533388392979, -0.08822397332960195, -0.14811420722276275, -0.0398361032143289, 0.47857906622284874